{
  "users": [
    {
      "id": "USER-0021",
      "name": "佐藤 陽菜",
      "email": "user0021@example.com",
      "plan": "プレミアム",
      "status": "suspended",
      "statusLabel": "停止中",
      "monthlyFee": 5000,
      "registeredAt": "2024-02-18T08:00:00.000Z"
    },
    {
      "id": "USER-0022",
      "name": "鈴木 大翔",
      "email": "user0022@example.com",
      "plan": "ベーシック",
      "status": "active",
      "statusLabel": "有効",
      "monthlyFee": 9700,
      "registeredAt": "2024-02-20T18:00:00.000Z"
    },
    {
      "id": "USER-0023",
      "name": "高橋 美咲",
      "email": "user0023@example.com",
      "plan": "スタンダード",
      "status": "pending",
      "statusLabel": "審査中",
      "monthlyFee": 5400,
      "registeredAt": "2024-02-23T04:00:00.000Z"
    },
    {
      "id": "USER-0024",
      "name": "田中 蓮",
      "email": "user0024@example.com",
      "plan": "プレミアム",
      "status": "suspended",
      "statusLabel": "停止中",
      "monthlyFee": 1100,
      "registeredAt": "2024-02-25T14:00:00.000Z"
    },
    {
      "id": "USER-0025",
      "name": "伊藤 凛",
      "email": "user0025@example.com",
      "plan": "ベーシック",
      "status": "active",
      "statusLabel": "有効",
      "monthlyFee": 5800,
      "registeredAt": "2024-02-28T00:00:00.000Z"
    },
    {
      "id": "USER-0026",
      "name": "渡辺 奏",
      "email": "user0026@example.com",
      "plan": "スタンダード",
      "status": "pending",
      "statusLabel": "審査中",
      "monthlyFee": 1500,
      "registeredAt": "2024-03-01T10:00:00.000Z"
    },
    {
      "id": "USER-0027",
      "name": "山本 葵",
      "email": "user0027@example.com",
      "plan": "プレミアム",
      "status": "suspended",
      "statusLabel": "停止中",
      "monthlyFee": 6200,
      "registeredAt": "2024-03-03T20:00:00.000Z"
    },
    {
      "id": "USER-0028",
      "name": "中村 悠真",
      "email": "user0028@example.com",
      "plan": "ベーシック",
      "status": "active",
      "statusLabel": "有効",
      "monthlyFee": 1900,
      "registeredAt": "2024-03-06T06:00:00.000Z"
    },
    {
      "id": "USER-0029",
      "name": "小林 結菜",
      "email": "user0029@example.com",
      "plan": "スタンダード",
      "status": "pending",
      "statusLabel": "審査中",
      "monthlyFee": 6600,
      "registeredAt": "2024-03-08T16:00:00.000Z"
    },
    {
      "id": "USER-0030",
      "name": "加藤 樹",
      "email": "user0030@example.com",
      "plan": "プレミアム",
      "status": "suspended",
      "statusLabel": "停止中",
      "monthlyFee": 2300,
      "registeredAt": "2024-03-11T02:00:00.000Z"
    },
    {
      "id": "USER-0031",
      "name": "吉田 莉子",
      "email": "user0031@example.com",
      "plan": "ベーシック",
      "status": "active",
      "statusLabel": "有効",
      "monthlyFee": 7000,
      "registeredAt": "2024-03-13T12:00:00.000Z"
    },
    {
      "id": "USER-0032",
      "name": "山田 駿",
      "email": "user0032@example.com",
      "plan": "スタンダード",
      "status": "pending",
      "statusLabel": "審査中",
      "monthlyFee": 2700,
      "registeredAt": "2024-03-15T22:00:00.000Z"
    },
    {
      "id": "USER-0033",
      "name": "佐々木 結衣",
      "email": "user0033@example.com",
      "plan": "プレミアム",
      "status": "suspended",
      "statusLabel": "停止中",
      "monthlyFee": 7400,
      "registeredAt": "2024-03-18T08:00:00.000Z"
    },
    {
      "id": "USER-0034",
      "name": "山口 新",
      "email": "user0034@example.com",
      "plan": "ベーシック",
      "status": "active",
      "statusLabel": "有効",
      "monthlyFee": 3100,
      "registeredAt": "2024-03-20T18:00:00.000Z"
    },
    {
      "id": "USER-0035",
      "name": "松本 杏",
      "email": "user0035@example.com",
      "plan": "スタンダード",
      "status": "pending",
      "statusLabel": "審査中",
      "monthlyFee": 7800,
      "registeredAt": "2024-03-23T04:00:00.000Z"
    },
    {
      "id": "USER-0036",
      "name": "井上 湊",
      "email": "user0036@example.com",
      "plan": "プレミアム",
      "status": "suspended",
      "statusLabel": "停止中",
      "monthlyFee": 3500,
      "registeredAt": "2024-03-25T14:00:00.000Z"
    },
    {
      "id": "USER-0037",
      "name": "木村 咲良",
      "email": "user0037@example.com",
      "plan": "ベーシック",
      "status": "active",
      "statusLabel": "有効",
      "monthlyFee": 8200,
      "registeredAt": "2024-03-28T00:00:00.000Z"
    },
    {
      "id": "USER-0038",
      "name": "林 陽斗",
      "email": "user0038@example.com",
      "plan": "スタンダード",
      "status": "pending",
      "statusLabel": "審査中",
      "monthlyFee": 3900,
      "registeredAt": "2024-03-30T10:00:00.000Z"
    },
    {
      "id": "USER-0039",
      "name": "清水 芽依",
      "email": "user0039@example.com",
      "plan": "プレミアム",
      "status": "suspended",
      "statusLabel": "停止中",
      "monthlyFee": 8600,
      "registeredAt": "2024-04-01T20:00:00.000Z"
    },
    {
      "id": "USER-0040",
      "name": "斎藤 颯",
      "email": "user0040@example.com",
      "plan": "ベーシック",
      "status": "active",
      "statusLabel": "有効",
      "monthlyFee": 4300,
      "registeredAt": "2024-04-04T06:00:00.000Z"
    }
  ],
  "page": 3,
  "hasMore": true,
  "total": 100
}
