{
  "users": [
    {
      "id": "USER-0061",
      "name": "佐藤 陽菜",
      "email": "user0061@example.com",
      "plan": "ベーシック",
      "status": "active",
      "statusLabel": "有効",
      "monthlyFee": 4000,
      "registeredAt": "2024-05-25T00:00:00.000Z"
    },
    {
      "id": "USER-0062",
      "name": "鈴木 大翔",
      "email": "user0062@example.com",
      "plan": "スタンダード",
      "status": "pending",
      "statusLabel": "審査中",
      "monthlyFee": 8700,
      "registeredAt": "2024-05-27T10:00:00.000Z"
    },
    {
      "id": "USER-0063",
      "name": "高橋 美咲",
      "email": "user0063@example.com",
      "plan": "プレミアム",
      "status": "suspended",
      "statusLabel": "停止中",
      "monthlyFee": 4400,
      "registeredAt": "2024-05-29T20:00:00.000Z"
    },
    {
      "id": "USER-0064",
      "name": "田中 蓮",
      "email": "user0064@example.com",
      "plan": "ベーシック",
      "status": "active",
      "statusLabel": "有効",
      "monthlyFee": 9100,
      "registeredAt": "2024-06-01T06:00:00.000Z"
    },
    {
      "id": "USER-0065",
      "name": "伊藤 凛",
      "email": "user0065@example.com",
      "plan": "スタンダード",
      "status": "pending",
      "statusLabel": "審査中",
      "monthlyFee": 4800,
      "registeredAt": "2024-06-03T16:00:00.000Z"
    },
    {
      "id": "USER-0066",
      "name": "渡辺 奏",
      "email": "user0066@example.com",
      "plan": "プレミアム",
      "status": "suspended",
      "statusLabel": "停止中",
      "monthlyFee": 9500,
      "registeredAt": "2024-06-06T02:00:00.000Z"
    },
    {
      "id": "USER-0067",
      "name": "山本 葵",
      "email": "user0067@example.com",
      "plan": "ベーシック",
      "status": "active",
      "statusLabel": "有効",
      "monthlyFee": 5200,
      "registeredAt": "2024-06-08T12:00:00.000Z"
    },
    {
      "id": "USER-0068",
      "name": "中村 悠真",
      "email": "user0068@example.com",
      "plan": "スタンダード",
      "status": "pending",
      "statusLabel": "審査中",
      "monthlyFee": 9900,
      "registeredAt": "2024-06-10T22:00:00.000Z"
    },
    {
      "id": "USER-0069",
      "name": "小林 結菜",
      "email": "user0069@example.com",
      "plan": "プレミアム",
      "status": "suspended",
      "statusLabel": "停止中",
      "monthlyFee": 5600,
      "registeredAt": "2024-06-13T08:00:00.000Z"
    },
    {
      "id": "USER-0070",
      "name": "加藤 樹",
      "email": "user0070@example.com",
      "plan": "ベーシック",
      "status": "active",
      "statusLabel": "有効",
      "monthlyFee": 1300,
      "registeredAt": "2024-06-15T18:00:00.000Z"
    },
    {
      "id": "USER-0071",
      "name": "吉田 莉子",
      "email": "user0071@example.com",
      "plan": "スタンダード",
      "status": "pending",
      "statusLabel": "審査中",
      "monthlyFee": 6000,
      "registeredAt": "2024-06-18T04:00:00.000Z"
    },
    {
      "id": "USER-0072",
      "name": "山田 駿",
      "email": "user0072@example.com",
      "plan": "プレミアム",
      "status": "suspended",
      "statusLabel": "停止中",
      "monthlyFee": 1700,
      "registeredAt": "2024-06-20T14:00:00.000Z"
    },
    {
      "id": "USER-0073",
      "name": "佐々木 結衣",
      "email": "user0073@example.com",
      "plan": "ベーシック",
      "status": "active",
      "statusLabel": "有効",
      "monthlyFee": 6400,
      "registeredAt": "2024-06-23T00:00:00.000Z"
    },
    {
      "id": "USER-0074",
      "name": "山口 新",
      "email": "user0074@example.com",
      "plan": "スタンダード",
      "status": "pending",
      "statusLabel": "審査中",
      "monthlyFee": 2100,
      "registeredAt": "2024-06-25T10:00:00.000Z"
    },
    {
      "id": "USER-0075",
      "name": "松本 杏",
      "email": "user0075@example.com",
      "plan": "プレミアム",
      "status": "suspended",
      "statusLabel": "停止中",
      "monthlyFee": 6800,
      "registeredAt": "2024-06-27T20:00:00.000Z"
    },
    {
      "id": "USER-0076",
      "name": "井上 湊",
      "email": "user0076@example.com",
      "plan": "ベーシック",
      "status": "active",
      "statusLabel": "有効",
      "monthlyFee": 2500,
      "registeredAt": "2024-06-30T06:00:00.000Z"
    },
    {
      "id": "USER-0077",
      "name": "木村 咲良",
      "email": "user0077@example.com",
      "plan": "スタンダード",
      "status": "pending",
      "statusLabel": "審査中",
      "monthlyFee": 7200,
      "registeredAt": "2024-07-02T16:00:00.000Z"
    },
    {
      "id": "USER-0078",
      "name": "林 陽斗",
      "email": "user0078@example.com",
      "plan": "プレミアム",
      "status": "suspended",
      "statusLabel": "停止中",
      "monthlyFee": 2900,
      "registeredAt": "2024-07-05T02:00:00.000Z"
    },
    {
      "id": "USER-0079",
      "name": "清水 芽依",
      "email": "user0079@example.com",
      "plan": "ベーシック",
      "status": "active",
      "statusLabel": "有効",
      "monthlyFee": 7600,
      "registeredAt": "2024-07-07T12:00:00.000Z"
    },
    {
      "id": "USER-0080",
      "name": "斎藤 颯",
      "email": "user0080@example.com",
      "plan": "スタンダード",
      "status": "pending",
      "statusLabel": "審査中",
      "monthlyFee": 3300,
      "registeredAt": "2024-07-09T22:00:00.000Z"
    }
  ],
  "page": 5,
  "hasMore": true,
  "total": 100
}
